…
Note that `right_join` is not supported and the user should use `left_join` instead.

## Window functions and arbitrary functions

`disk.frame` supports all operations that can be appllied to normal `data.frame`s unlike Spark which are limited to only those operations that are implemented in Spark. Hence windowing fucntions like `rank` are supported out of the box

```r
# Source: local data table [336,776 x 5]
# Groups: 
#   
#   # A tibble: 336,776 x 5
#   year month   day dep_delay  rank
# <int> <int> <int>     <dbl> <dbl>
#   1  2013     1     1         2  313 
# 2  2013     1     1         4  276 
# 3  2013     1     1         2  313 
# 4  2013     1     1        -1  440 
# 5  2013     1     1        -6  742 
# 6  2013     1     1        -4  633 
# 7  2013     1     1        -5  691 
# 8  2013     1     1        -3  570 
# 9  2013     1     1        -3  570 
# 10  2013     1     1        -2  502.
# # ... with 336,766 more rows
```
…
