Perform a hard group — hard_group_by • disk.frame
…
    Examples

iris.df = as.disk.frame(iris, nchunks = 2)

# group_by iris.df by specifies and ensure rows with the same specifies are in the same chunk
iris_hard.df = hard_group_by(iris.df, Species)

#> Hashing...
#> Hashing...
#> Appending disk.frames: 

get_chunk(iris_hard.df, 1)

#> # A tibble: 150 x 5
#> # Groups:   Species [3]
#>    Sepal.Length Sepal.Width Petal.Length Petal.Width Species
#>           <dbl>       <dbl>        <dbl>       <dbl> <fct>  
#>  1          5.1         3.5          1.4         0.2 setosa 
#>  2          4.9         3            1.4         0.2 setosa 
#>  3          4.7         3.2          1.3         0.2 setosa 
#>  4          4.6         3.1          1.5         0.2 setosa 
#>  5          5           3.6          1.4         0.2 setosa 
#>  6          5.4         3.9          1.7         0.4 setosa 
#>  7          4.6         3.4          1.4         0.3 setosa 
#>  8          5           3.4          1.5         0.2 setosa 
#>  9          4.4         2.9          1.4         0.2 setosa 
#> 10          4.9         3.1          1.5         0.1 setosa 
#> # ... with 140 more rows
…
